^C:\USERS\MAGSHIMIM\DESKTOP\MAGSHIMIM\YEAR 2\C - YEAR 2\LESSON 6 - DEBUGGING\HOMEWORK6\EX2\EX2\DEBUG\CHAREXCEPTION.OBJ|C:\USERS\MAGSHIMIM\DESKTOP\MAGSHIMIM\YEAR 2\C - YEAR 2\LESSON 6 - DEBUGGING\HOMEWORK6\EX2\EX2\DEBUG\CIRCLE.OBJ|C:\USERS\MAGSHIMIM\DESKTOP\MAGSHIMIM\YEAR 2\C - YEAR 2\LESSON 6 - DEBUGGING\HOMEWORK6\EX2\EX2\DEBUG\HEXAGON.OBJ|C:\USERS\MAGSHIMIM\DESKTOP\MAGSHIMIM\YEAR 2\C - YEAR 2\LESSON 6 - DEBUGGING\HOMEWORK6\EX2\EX2\DEBUG\INPUTEXCEPTION.OBJ|C:\USERS\MAGSHIMIM\DESKTOP\MAGSHIMIM\YEAR 2\C - YEAR 2\LESSON 6 - DEBUGGING\HOMEWORK6\EX2\EX2\DEBUG\MAIN.OBJ|C:\USERS\MAGSHIMIM\DESKTOP\MAGSHIMIM\YEAR 2\C - YEAR 2\LESSON 6 - DEBUGGING\HOMEWORK6\EX2\EX2\DEBUG\MATHUTILS.OBJ|C:\USERS\MAGSHIMIM\DESKTOP\MAGSHIMIM\YEAR 2\C - YEAR 2\LESSON 6 - DEBUGGING\HOMEWORK6\EX2\EX2\DEBUG\PARALLELOGRAM.OBJ|C:\USERS\MAGSHIMIM\DESKTOP\MAGSHIMIM\YEAR 2\C - YEAR 2\LESSON 6 - DEBUGGING\HOMEWORK6\EX2\EX2\DEBUG\PENTAGON.OBJ|C:\USERS\MAGSHIMIM\DESKTOP\MAGSHIMIM\YEAR 2\C - YEAR 2\LESSON 6 - DEBUGGING\HOMEWORK6\EX2\EX2\DEBUG\QUADRILATERAL.OBJ|C:\USERS\MAGSHIMIM\DESKTOP\MAGSHIMIM\YEAR 2\C - YEAR 2\LESSON 6 - DEBUGGING\HOMEWORK6\EX2\EX2\DEBUG\RECTANGLE.OBJ|C:\USERS\MAGSHIMIM\DESKTOP\MAGSHIMIM\YEAR 2\C - YEAR 2\LESSON 6 - DEBUGGING\HOMEWORK6\EX2\EX2\DEBUG\SHAPE.OBJ
C:\USERS\MAGSHIMIM\DESKTOP\MAGSHIMIM\YEAR 2\C - YEAR 2\LESSON 6 - DEBUGGING\HOMEWORK6\EX2\DEBUG\EX2.EXE
C:\USERS\MAGSHIMIM\DESKTOP\MAGSHIMIM\YEAR 2\C - YEAR 2\LESSON 6 - DEBUGGING\HOMEWORK6\EX2\DEBUG\EX2.ILK
C:\USERS\MAGSHIMIM\DESKTOP\MAGSHIMIM\YEAR 2\C - YEAR 2\LESSON 6 - DEBUGGING\HOMEWORK6\EX2\DEBUG\EX2.PDB
